Using the CEOdata package
…
The most comprehensive kind of data on catalan public opinion is the “Barometer”, that can be retrieved by default by the main function CEOdata().

library(CEOdata)
d <- CEOdata()

This provides a cleaned and merged version of all the available Barometers, providing easy acces to the following number of responses and variables:

dim(d)

## [1] 33838   814

d

## # A tibble: 33,838 × 814
##    PONDERA ORDRE_REVISADA   REO BOP_NUM   ANY   MES   DIA HOR_INI HOR_FIN DURADA
##      <dbl>          <dbl> <dbl> <fct>   <dbl> <dbl> <dbl>   <dbl>   <dbl>  <dbl>
##  1    1.86              1   746 Març 1…  2014     3    NA      NA      NA   1631
##  2    1.86              2   746 Març 1…  2014     3    NA      NA      NA   1972
##  3    1.86              3   746 Març 1…  2014     3    NA      NA      NA   1478
##  4    1.86              4   746 Març 1…  2014     3    NA      NA      NA    872
##  5    1.86              5   746 Març 1…  2014     3    NA      NA      NA   1356
##  6    1.86              6   746 Març 1…  2014     3    NA      NA      NA   1205
##  7    1.86              7   746 Març 1…  2014     3    NA      NA      NA   1279
##  8    1.86              8   746 Març 1…  2014     3    NA      NA      NA    995
##  9    1.86              9   746 Març 1…  2014     3    NA      NA      NA   1497
## 10    1.86             10   746 Març 1…  2014     3    NA      NA      NA   1221
## # … with 33,828 more rows, and 804 more variables: ENQUESTADOR_CODI <dbl>,
## #   ENQUESTADOR_SEXE <fct>, ENQUESTADOR_ESTUDIS <fct>,
## #   ENQUESTADOR_NACIONALITAT <fct>, PROVINCIA <fct>, HABITAT <fct>,
## #   MUNICIPI <fct>, COMARCA <fct>, ID_RUTA <dbl>, SECCIO_TEORICA <dbl>,
## #   CONF_SECC <fct>, SECCIO_REAL <dbl>, DOMICILI_PARTICULAR <fct>,
## #   LLENGUA_ENQUESTA <fct>, PADRO <fct>, CIUTADANIA <fct>, SEXE <fct>,
## #   EDAT <dbl>, EDAT_GR <fct>, EDAT_CEO <fct>, LLOC_NAIX <fct>, …
…
Specific barometers or time frames

CEOdata() allows you to select specific Barometers, by providing their internal register in the reo argument. The reo is the internal name that the CEO uses, and stands for “Registre d’Estudis d’Opinió” (register of opinion studies), and is the main identificator of the survey, also present in the table of meta data. Although many of them are numbers, some have a number, a slash and another number, and therefore a character vector must be passed. Only a single REO can be passed, as it is not guaranteed that different data matrices share any column, and may refer to very different topics.

For instance, to get only the data of the study with register “746” (corresponding to March 2013):

d746 <- CEOdata(reo = "746")
d746

## # A tibble: 2,000 × 475
##      NUM NUM_CINE      BOP_NUM   MES   ANY   DIA CODI_ENQ HOR_INI HOR_FIN DURADA
##    <dbl>    <dbl>    <dbl+lbl> <dbl> <dbl> <dbl> <dbl+lb> <time>  <time>   <dbl>
##  1    NA        1 32 [Març. 1…     4    14    NA 243 [G3]    NA      NA     1203
##  2    NA        2 32 [Març. 1…     4    14    NA 254 [T4]    NA      NA      997
##  3    NA        3 32 [Març. 1…     4    14    NA 243 [G3]    NA      NA     1127
##  4    NA        4 32 [Març. 1…     4    14    NA 235 [B5]    NA      NA     1792
##  5    NA        5 32 [Març. 1…     4    14    NA 236 [B6]    NA      NA     1418
##  6    NA        6 32 [Març. 1…     3    14    NA 246 [L1]    NA      NA     1964
##  7    NA        7 32 [Març. 1…     4    14    NA 244 [G4]    NA      NA     2283
##  8    NA        8 32 [Març. 1…     4    14    NA 233 [B3]    NA      NA     1322
##  9    NA        9 32 [Març. 1…     3    14    NA 232 [B2]    NA      NA     1778
## 10    NA       10 32 [Març. 1…     3    14    NA 254 [T4]    NA      NA     1119
## # … with 1,990 more rows, and 465 more variables: num_quest <dbl>,
## #   sexe_enq <dbl+lbl>, edat_enq <dbl>, estudis_enq <dbl+lbl>,
## #   nacionalitat_enq <dbl+lbl>, PROVI <dbl+lbl>, HABITAT <dbl+lbl>,
## #   MUN <dbl+lbl>, ADRECA <chr>, COMARCA <dbl+lbl>, SEXE <dbl+lbl>, EDAT <dbl>,
## #   SE <chr>, GR_EDAT <dbl+lbl>, Edat_CEO <dbl+lbl>, F01 <dbl+lbl>,
## #   F02 <dbl+lbl>, F03 <dbl+lbl>, F04 <dbl+lbl>, PRE_P1 <dbl+lbl>,
## #   P1_LITERALS <chr>, P1_100_R <dbl>, P1_200_R <dbl>, P1_300_R <dbl>, …
…
tail(names(d))

## [1] "CONSEQ_ECON_COVID19"     "ACTITUD_PERSONAL_COVD19"
## [3] "CIRCUIT_985_1"           "CIRCUIT_985_2"          
## [5] "CIRCUIT_985_3"           "Data"

CEOmeta(): Access to the metadata of studies and surveys

The function CEOmeta allows to easily retrieve, search and restrict by time the list of all the surveys produced by the CEO, which amounts to more than a thousand as of end of 2021.

When called alone, the function downloads the latest version of the metadata published by the center, in a transparent way, and caching its content so that any subsequent calls in the same R session do not need to download it again.

CEOmeta()

## # A tibble: 1,151 × 27
##    REO   `Titol enquesta`    `Titol estudi`    `Metodologia en… `Metode de reco…
##    <fct> <chr>               <chr>             <fct>            <fct>           
##  1 1006  Seguiment d'indica… Seguiment d'indi… quantitativa     telèfon         
##  2 1005  Enquesta sobre el … Enquesta sobre e… quantitativa     telèfon         
##  3 1004  Baròmetre sanitari… Baròmetre sanita… quantitativa     telèfon         
##  4 1003  L'ètica pública a … L'ètica pública … quantitativa     autoadministrada
##  5 1002  Enquesta de satisf… Enquesta de sati… quantitativa     autoadministrada
##  6 1001  Índex de satisfacc… Índex de satisfa… quantitativa     internet;telèfon
##  7 1000  Enquesta panel sob… Enquesta panel s… quantitativa     internet        
##  8 999   Enquesta d'inserci… Enquesta d'inser… quantitativa     telèfon         
##  9 998   Hàbits de consum d… Hàbits de consum… quantitativa     telèfon         
## 10 997   Hàbits de consum d… Hàbits de consum… quantitativa     telèfon         
## # … with 1,141 more rows, and 22 more variables: Objectius <chr>,
## #   Ambit territorial <fct>, Cost <dbl>, Promotors enquesta <chr>,
## #   Executors enquesta <chr>, Promotors estudi <chr>, Executors estudi <chr>,
## #   Data de treball de camp <chr>, Dia inici treball de camp <date>,
## #   Dia final treball de camp <date>, Univers <chr>, Mostra <chr>,
## #   Mostra estudis quantitatius <dbl>, Mostra estudis qualitatius <chr>,
## #   Error mostral <chr>, Error mostral (numèric) <chr>, Resum <chr>, …

Search for specific topics though keywords

The first relevant argument for CEOmeta() is search, which is a built-in simple search engine that goes through the columns of the metadata containing potential descriptive information () and returns the studies that contain such keyword.

CEOmeta(search = "Medi ambient")

## Looking for entries with: medi ambient

## # A tibble: 44 × 27
##    REO   `Titol enquesta`    `Titol estudi`    `Metodologia en… `Metode de reco…
##    <fct> <chr>               <chr>             <fct>            <fct>           
##  1 1006  Seguiment d'indica… Seguiment d'indi… quantitativa     telèfon         
##  2 973   Seguiment d'indica… Seguiment d'indi… quantitativa     telèfon         
##  3 941   Seguiment d'indica… Seguiment d'indi… quantitativa     telèfon         
##  4 876   Baròmetre de la bi… Baròmetre de la … quantitativa     internet;telèfon
##  5 875   Seguiment d'indica… Seguiment d'indi… quantitativa     telèfon         
##  6 865   Seguiment d'indica… Seguiment d'indi… quantitativa     telèfon         
##  7 819   Baròmetre 2015 de … Baròmetre 2015 d… quantitativa     telèfon         
##  8 807   Seguiment d'Indica… Seguiment d'indi… quantitativa     telèfon         
##  9 805   Baròmetre de la bi… Baròmetre de la … quantitativa     internet;telèfon
## 10 803   Post test campanya… Post test campan… quantitativa     telèfon         
## # … with 34 more rows, and 22 more variables: Objectius <chr>,
## #   Ambit territorial <fct>, Cost <dbl>, Promotors enquesta <chr>,
## #   Executors enquesta <chr>, Promotors estudi <chr>, Executors estudi <chr>,
## #   Data de treball de camp <chr>, Dia inici treball de camp <date>,
## #   Dia final treball de camp <date>, Univers <chr>, Mostra <chr>,
## #   Mostra estudis quantitatius <dbl>, Mostra estudis qualitatius <chr>,
## #   Error mostral <chr>, Error mostral (numèric) <chr>, Resum <chr>, …

It is also possible to pass more than one value to search, so that the search includes them (either one of them OR any other).

CEOmeta(search = c("Medi ambient", "Municipi"))

## Looking for entries with: medi ambient OR municipi

## # A tibble: 48 × 27
##    REO   `Titol enquesta`    `Titol estudi`    `Metodologia en… `Metode de reco…
##    <fct> <chr>               <chr>             <fct>            <fct>           
##  1 1006  Seguiment d'indica… Seguiment d'indi… quantitativa     telèfon         
##  2 973   Seguiment d'indica… Seguiment d'indi… quantitativa     telèfon         
##  3 941   Seguiment d'indica… Seguiment d'indi… quantitativa     telèfon         
##  4 876   Baròmetre de la bi… Baròmetre de la … quantitativa     internet;telèfon
##  5 875   Seguiment d'indica… Seguiment d'indi… quantitativa     telèfon         
##  6 865   Seguiment d'indica… Seguiment d'indi… quantitativa     telèfon         
##  7 819   Baròmetre 2015 de … Baròmetre 2015 d… quantitativa     telèfon         
##  8 807   Seguiment d'Indica… Seguiment d'indi… quantitativa     telèfon         
##  9 805   Baròmetre de la bi… Baròmetre de la … quantitativa     internet;telèfon
## 10 803   Post test campanya… Post test campan… quantitativa     telèfon         
## # … with 38 more rows, and 22 more variables: Objectius <chr>,
## #   Ambit territorial <fct>, Cost <dbl>, Promotors enquesta <chr>,
## #   Executors enquesta <chr>, Promotors estudi <chr>, Executors estudi <chr>,
## #   Data de treball de camp <chr>, Dia inici treball de camp <date>,
## #   Dia final treball de camp <date>, Univers <chr>, Mostra <chr>,
## #   Mostra estudis quantitatius <dbl>, Mostra estudis qualitatius <chr>,
## #   Error mostral <chr>, Error mostral (numèric) <chr>, Resum <chr>, …
…
